cl__=105e-6;
Point(1) = {-105e-6, 0.5e-3, 0, cl__};
Point(2) = {105e-6, 0.5e-3, 0, cl__};
Point(3) = {105e-6, -0.5e-3, 0, cl__};
Point(4) = {-105e-6, -0.5e-3, 0, cl__};
Point(5) = {-4.3e-6, -0.5e-3, 0, cl__};
Point(6) = {4.3e-6, -0.5e-3, 0, cl__};
Point(7) = {4.3e-6, 0.5e-3, 0, cl__};
Point(8) = {-4.3e-6, 0.5e-3, 0, cl__};
Line(1) = {8, 1};
Line(2) = {1, 4};
Line(3) = {8, 5};
Line(4) = {4, 5};
Line(5) = {3, 6};
Line(6) = {6, 7};
Line(7) = {7, 2};
Line(8) = {2, 3};
Line Loop(9) = {2, 4, -3, 1};
Plane Surface(10) = {9};
Line Loop(11) = {8, 5, 6, 7};
Plane Surface(12) = {11};
