"p_pm","vtkValidPointMask","arc_length","Points:0","Points:1","Points:2"
-932.999999,1,0,-0.000104999999,0,0
-930.382999,1,2.10000144e-06,-0.000102899998,0,0
-927.766008,1,4.1999956e-06,-0.000100800004,0,0
-925.149008,1,6.29999704e-06,-9.87000021e-05,0,0
-922.532008,1,8.39999848e-06,-9.66000007e-05,0,0
-919.915008,1,1.04999999e-05,-9.44999992e-05,0,0
-917.298007,1,1.26000014e-05,-9.23999978e-05,0,0
-914.681005,1,1.47000028e-05,-9.02999964e-05,0,0
-912.064013,1,1.6799997e-05,-8.82000022e-05,0,0
-909.447012,1,1.88999984e-05,-8.61000008e-05,0,0
-906.83001,1,2.09999998e-05,-8.39999993e-05,0,0
-904.213006,1,2.31000013e-05,-8.18999979e-05,0,0
-901.596002,1,2.52000027e-05,-7.97999965e-05,0,0
-898.979007,1,2.72999969e-05,-7.77000023e-05,0,0
-896.362003,1,2.93999983e-05,-7.56000009e-05,0,0
-893.744999,1,3.14999997e-05,-7.34999994e-05,0,0
-891.127991,1,3.36000012e-05,-7.1399998e-05,0,0
-888.510983,1,3.57000026e-05,-6.92999965e-05,0,0
-885.893984,1,3.77999968e-05,-6.72000024e-05,0,0
-883.276976,1,3.98999982e-05,-6.51000009e-05,0,0
-880.659968,1,4.19999997e-05,-6.29999995e-05,0,0
-878.042959,1,4.40999975e-05,-6.09000017e-05,0,0
-875.425945,1,4.61999989e-05,-5.88000003e-05,0,0
-872.808931,1,4.83000003e-05,-5.66999988e-05,0,0
-870.191922,1,5.03999981e-05,-5.4600001e-05,0,0
-867.574909,1,5.24999996e-05,-5.24999996e-05,0,0
-864.957893,1,5.45999974e-05,-5.04000018e-05,0,0
-862.340873,1,5.66999988e-05,-4.83000003e-05,0,0
-859.723853,1,5.88000003e-05,-4.61999989e-05,0,0
-857.106837,1,6.08999981e-05,-4.41000011e-05,0,0
-854.489817,1,6.29999995e-05,-4.19999997e-05,0,0
-851.872788,1,6.51000009e-05,-3.98999982e-05,0,0
-849.255764,1,6.72000024e-05,-3.78000004e-05,0,0
-846.638736,1,6.93000038e-05,-3.5699999e-05,0,0
-844.021712,1,7.1399998e-05,-3.36000012e-05,0,0
-841.404683,1,7.34999994e-05,-3.14999997e-05,0,0
-838.787648,1,7.56000009e-05,-2.94000001e-05,0,0
-836.170612,1,7.7699995e-05,-2.73000005e-05,0,0
-833.553577,1,7.97999965e-05,-2.52000009e-05,0,0
-830.936539,1,8.18999979e-05,-2.30999995e-05,0,0
-828.319503,1,8.39999993e-05,-2.09999998e-05,0,0
-825.702457,1,8.61000008e-05,-1.89000002e-05,0,0
-823.08541,1,8.82000022e-05,-1.68000006e-05,0,0
-820.468362,1,9.02999964e-05,-1.47000001e-05,0,0
-817.851316,1,9.23999978e-05,-1.26000004e-05,0,0
-815.234268,1,9.44999992e-05,-1.04999999e-05,0,0
-812.617209,1,9.66000007e-05,-8.4000003e-06,0,0
-810.00015,1,9.87000021e-05,-6.30000022e-06,0,0
-807.383091,1,0.000100799996,-4.20000015e-06,0,0
-804.766032,1,0.000102899998,-2.10000007e-06,0,0
-802.148973,1,0.000104999999,0,0,0
-804.766032,1,0.000107100001,2.10000007e-06,0,0
-807.383091,1,0.000109200002,4.20000015e-06,0,0
-810.00015,1,0.000111299996,6.30000022e-06,0,0
-812.617209,1,0.000113399998,8.4000003e-06,0,0
-815.234268,1,0.000115499999,1.04999999e-05,0,0
-817.851316,1,0.000117600001,1.26000004e-05,0,0
-820.468362,1,0.000119700002,1.47000001e-05,0,0
-823.08541,1,0.000121799996,1.68000006e-05,0,0
-825.702457,1,0.000123899998,1.89000002e-05,0,0
-828.319503,1,0.000125999999,2.09999998e-05,0,0
-830.936539,1,0.0001281,2.30999995e-05,0,0
-833.553577,1,0.000130200002,2.52000009e-05,0,0
-836.170612,1,0.000132300003,2.73000005e-05,0,0
-838.787648,1,0.000134400005,2.94000001e-05,0,0
-841.404683,1,0.000136499992,3.14999997e-05,0,0
-844.021712,1,0.000138600008,3.36000012e-05,0,0
-846.638736,1,0.000140699995,3.5699999e-05,0,0
-849.255764,1,0.000142799996,3.78000004e-05,0,0
-851.872788,1,0.000144899997,3.98999982e-05,0,0
-854.489817,1,0.000146999999,4.19999997e-05,0,0
-857.106837,1,0.0001491,4.41000011e-05,0,0
-859.723853,1,0.000151200002,4.61999989e-05,0,0
-862.340873,1,0.000153300003,4.83000003e-05,0,0
-864.957893,1,0.000155400005,5.04000018e-05,0,0
-867.574909,1,0.000157500006,5.24999996e-05,0,0
-870.191922,1,0.000159599993,5.4600001e-05,0,0
-872.808931,1,0.000161699994,5.66999988e-05,0,0
-875.425945,1,0.000163799996,5.88000003e-05,0,0
-878.042959,1,0.000165899997,6.09000017e-05,0,0
-880.659968,1,0.000167999999,6.29999995e-05,0,0
-883.276976,1,0.0001701,6.51000009e-05,0,0
-885.893984,1,0.000172200002,6.72000024e-05,0,0
-888.510983,1,0.000174299988,6.92999965e-05,0,0
-891.127991,1,0.000176400004,7.1399998e-05,0,0
-893.744999,1,0.000178499991,7.34999994e-05,0,0
-896.362003,1,0.000180600007,7.56000009e-05,0,0
-898.979007,1,0.000182699994,7.77000023e-05,0,0
-901.596002,1,0.000184799996,7.97999965e-05,0,0
-904.213006,1,0.000186899997,8.18999979e-05,0,0
-906.83001,1,0.000188999998,8.39999993e-05,0,0
-909.447012,1,0.0001911,8.61000008e-05,0,0
-912.064013,1,0.000193200001,8.82000022e-05,0,0
-914.681005,1,0.000195300003,9.02999964e-05,0,0
-917.298007,1,0.00019739999,9.23999978e-05,0,0
-919.915008,1,0.000199500006,9.44999992e-05,0,0
-922.532008,1,0.000201599993,9.66000007e-05,0,0
-925.149008,1,0.000203700009,9.87000021e-05,0,0
-927.766008,1,0.000205799995,0.000100800004,0,0
-930.382999,1,0.000207899997,0.000102899998,0,0
-932.999999,1,0.000209999998,0.000104999999,0,0
