cl__1 = 0.1;
cl__2 = 0.03;
Point(1) = {1, 1, 0, cl__1};
Point(2) = {-1, 1, 0, cl__1};
Point(3) = {-1, -1, 0, cl__1};
Point(4) = {1, -1, 0, cl__1};
Point(5) = {-0.1, 1, 0, cl__2};
Point(6) = {0.1, 1, 0, cl__2};
Point(7) = {0.5, -1, 0, cl__2};
Point(8) = {0.6, -1, 0, cl__2};
Point(9) = {-0.5, -1, 0, cl__2};
Point(10) = {-0.6, -1, 0, cl__2};
Point(11) = {0.1, 0, 0, cl__2};
Point(12) = {-0.1, 0, 0, cl__2};
Point(13) = {0, 0, 0, cl__2};
Point(14) = {0, -1, 0, cl__1};

Line(1) = {2, 5};
Line(2) = {5, 6};
Line(3) = {6, 1};
Line(4) = {1, 4};
Line(5) = {4, 8};
Line(6) = {8, 11};
Line(7) = {11, 6};
Line(8) = {5, 12};
Line(9) = {12, 10};
Line(10) = {10, 3};
Line(11) = {3, 2};
Line(12) = {13, 9};
Line(13) = {13, 7};
Line(14) = {7, 14};
Line(15) = {14, 9};
Line(16) = {10, 9};
Line(17) = {7, 8};
Line(18) = {12, 13};
Line(19) = {13, 11};
Line Loop(20) = {11, 1, 8, 9, 10};
Plane Surface(21) = {20};
Line Loop(22) = {7, 3, 4, 5, 6};
Plane Surface(23) = {22};
Line Loop(24) = {8, 18, 19, 7, -2};
Plane Surface(25) = {24};
Line Loop(26) = {9, 16, -12, -18};
Plane Surface(27) = {26};
Line Loop(28) = {19, -6, -17, -13};
Plane Surface(29) = {28};
Line Loop(30) = {12, -15, -14, -13};
Plane Surface(31) = {30};
