$MeshFormat
2.2 0 8
$EndMeshFormat
$Nodes
9
1 0 0.0005 0
2 0 -0.0005 0
3 0 0.0003750000000002143 0
4 0 0.0002500000000005344 0
5 0 0.0001250000000008865 0
6 0 1.280984866791623e-15 0
7 0 -0.0001249999999990234 0
8 0 -0.0002499999999993489 0
9 0 -0.0003749999999996745 0
$EndNodes
$Elements
10
1 15 2 0 1 1
2 15 2 0 2 2
3 1 2 0 1 1 3
4 1 2 0 1 3 4
5 1 2 0 1 4 5
6 1 2 0 1 5 6
7 1 2 0 1 6 7
8 1 2 0 1 7 8
9 1 2 0 1 8 9
10 1 2 0 1 9 2
$EndElements
