Point(1) = {105e-6, 0.5e-3, 0, 20e-6};
Point(2) = {-105e-6, 0.5e-3, 0, 20e-6};
Point(3) = {105e-6, 0.5e-3, 0, 20e-6};
Point(4) = {-105e-6, 0.5e-3, 0, 20e-6};
Point(5) = {-105e-6, -105e-6 + Sqrt(2)*105e-6, 0, 20e-6};
Point(6) = {105e-6, -105e-6 + Sqrt(2)*105e-6, 0, 20e-6};
Point(7) = {0, -Sqrt(2)/2*(2*105e-6), 0, 20e-6};
Point(8) = {(-0.5e-3 + 105e-6)/Sqrt(2), (-0.5e-3 - 105e-6)/Sqrt(2), 0, 20e-6};
Point(9) = {(-0.5e-3 - 105e-6)/Sqrt(2), (-0.5e-3 + 105e-6)/Sqrt(2), 0, 20e-6};
Point(10) = {(0.5e-3 + 105e-6)/Sqrt(2), (-0.5e-3 + 105e-6)/Sqrt(2), 0, 20e-6};
Point(11) = {(0.5e-3 - 105e-6)/Sqrt(2), (-0.5e-3 - 105e-6)/Sqrt(2), 0, 20e-6};
Line(1) = {2, 1};
Line(2) = {2, 5};
Line(3) = {5, 9};
Line(4) = {9, 8};
Line(5) = {8, 7};
Line(6) = {7, 11};
Line(7) = {11, 10};
Line(8) = {10, 6};
Line(9) = {6, 1};
Line Loop(10) = {1, -9, -8, -7, -6, -5, -4, -3, -2};
Plane Surface(11) = {10};
