Point(1) = {105e-6, 2e-3/Pi, 0, 10e-6};
Point(2) = {-105e-6, 2e-3/Pi, 0, 10e-6};
Point(3) = {2e-3/Pi, 105e-6, 0, 10e-6};
Point(4) = {2e-3/Pi, -105e-6, 0, 10e-6};
Point(5) = {0, 2e-3/Pi, 0, 10e-6};
Point(6) = {2e-3/Pi, 0, 0, 10e-6};
Point(7) = {2e-3/Pi, 2e-3/Pi, 0, 10e-6};Circle(1) = {2, 7, 4};
Circle(2) = {5, 7, 6};
Circle(3) = {1, 7, 3};
Line(4) = {2, 5};
Line(5) = {1, 5};
Line(6) = {4, 6};
Line(7) = {3, 6};
Line Loop(8) = {2, -7, -3, 5};
Ruled Surface(9) = {8};
Line Loop(10) = {1, 6, -2, -4};
Ruled Surface(11) = {10};
