rl = 4.3e-6;
rr = 4.3e-6;
Point(1) = {105e-6, 0.5e-3, 0, 20e-6};
Point(2) = {-105e-6, 0.5e-3, 0, 20e-6};

Point(3) = {4.3e-6, 0.5e-3, 0, 2.3e-6};
Point(4) = {-4.3e-6, 0.5e-3, 0, 2.3e-6};
Point(5) = {-4.3e-6, -4.3e-6 + Sqrt(2)*rl, 0, 2.3e-6};
Point(6) = {4.3e-6, -4.3e-6 + Sqrt(2)*rr, 0, 2.3e-6};
Point(7) = {Sqrt(2)/2*(rl-rr), -Sqrt(2)/2*(rr+rl), 0, 2.3e-6};
Point(8) = {(-0.5e-3 + rl)/Sqrt(2), (-0.5e-3 - rl)/Sqrt(2), 0, 2.3e-6};
Point(9) = {(-0.5e-3 - rl)/Sqrt(2), (-0.5e-3 + rl)/Sqrt(2), 0, 2.3e-6};
Point(10) = {(0.5e-3 + rr)/Sqrt(2), (-0.5e-3 + rr)/Sqrt(2), 0, 2.3e-6};
Point(11) = {(0.5e-3 - rr)/Sqrt(2), (-0.5e-3 - rr)/Sqrt(2), 0, 2.3e-6};

Point(12) = {105e-6, 0.5e-3, 0, 20e-6};
Point(13) = {-105e-6, 0.5e-3, 0, 20e-6};
Point(14) = {-105e-6, -105e-6 + Sqrt(2)*105e-6, 0, 20e-6};
Point(15) = {105e-6, -105e-6 + Sqrt(2)*105e-6, 0, 20e-6};
Point(16) = {0, -Sqrt(2)/2*(2*105e-6), 0, 20e-6};
Point(17) = {(-0.5e-3 + 105e-6)/Sqrt(2), (-0.5e-3 - 105e-6)/Sqrt(2), 0, 20e-6};
Point(18) = {(-0.5e-3 - 105e-6)/Sqrt(2), (-0.5e-3 + 105e-6)/Sqrt(2), 0, 20e-6};
Point(19) = {(0.5e-3 + 105e-6)/Sqrt(2), (-0.5e-3 + 105e-6)/Sqrt(2), 0, 20e-6};
Point(20) = {(0.5e-3 - 105e-6)/Sqrt(2), (-0.5e-3 - 105e-6)/Sqrt(2), 0, 20e-6};

Line(1) = {2, 4};
Line(2) = {4, 3};
Line(3) = {3, 1};
Line(4) = {1, 15};
Line(5) = {15, 19};
Line(6) = {19, 10};
Line(7) = {10, 11};
Line(8) = {11, 20};
Line(9) = {20, 16};
Line(10) = {16, 17};
Line(11) = {17, 8};
Line(12) = {8, 9};
Line(13) = {9, 18};
Line(14) = {18, 14};
Line(15) = {14, 2};
Line(16) = {4, 5};
Line(17) = {5, 9};
Line(18) = {8, 7};
Line(19) = {7, 11};
Line(20) = {10, 6};
Line(21) = {6, 3};
Line Loop(22) = {4, 5, 6, 20, 21, 3};
Plane Surface(23) = {22};
Line Loop(24) = {21, -2, 16, 17, -12, 18, 19, -7, 20};
Plane Surface(25) = {24};
Line Loop(26) = {10, 11, 18, 19, 8, 9};
Plane Surface(27) = {26};
Line Loop(28) = {14, 15, 1, 16, 17, 13};
Plane Surface(29) = {28};
