# vtk DataFile Version 2.0
bifurcation1D, Created by Gmsh
ASCII
DATASET UNSTRUCTURED_GRID
POINTS 15 double
0 0 0
1 0 0
2 0 0
3 0 0
4 0 0
1 1 0
2 2 0
3 3 0
-1 -0.5 0
-2 -1 0
-1.5 -0.75 0
0.5000000000020606 0.5000000000020606 0
-0.5000000000020592 -0.2500000000010296 0
1.500000000000001 1.500000000000001 0
2.500000000000001 2.500000000000001 0

CELLS 24 62
1 0
1 1
1 2
1 3
1 4
1 5
1 6
1 7
1 8
1 9
2 9 10
2 10 8
2 0 1
2 5 11
2 11 0
2 8 12
2 12 0
2 5 13
2 13 6
2 6 14
2 14 7
2 1 2
2 2 3
2 3 4

CELL_TYPES 24
1
1
1
1
1
1
1
1
1
1
3
3
3
3
3
3
3
3
3
3
3
3
3
3
