cl__1 = 1;
Point(1) = {0, 0, 0, 1};
Point(2) = {1, 0, 0, 1};
Point(3) = {2, 0, 0, 1};
Point(4) = {3, 0, 0, 1};
Point(5) = {4, 0, 0, 1};
Point(6) = {1, 1, 0, 1};
Point(7) = {2, 2, 0, 1};
Point(8) = {3, 3, 0, 1};
Point(9) = {-1, -0.5, 0, 1};
Point(10) = {-2, -1, 0, 1};
Line(1) = {10, 9};
Line(2) = {1, 2};
Line(3) = {6, 1};
Line(4) = {9, 1};
Line(5) = {6, 7};
Line(6) = {7, 8};
Line(7) = {2, 3};
Line(8) = {3, 4};
Line(9) = {4, 5};
