cl__1 = 0.1;
Point(1) = {0, 0, 0, 0.1};
Point(2) = {1, 0, 0, 0.1};
Point(3) = {0, 1, 0, 0.1};
Point(4) = {0, 0, 1, 0.1};
Point(5) = {0, 1, 1, 0.1};
Point(6) = {1, 0, 1, 0.1};
Point(7) = {1, 1, 0, 0.1};
Point(8) = {1, 1, 1, 0.1};
Line(1) = {5, 3};
Line(2) = {8, 7};
Line(3) = {3, 7};
Line(4) = {5, 8};
Line(5) = {6, 8};
Line(6) = {7, 2};
Line(7) = {2, 6};
Line(8) = {4, 1};
Line(9) = {4, 6};
Line(10) = {1, 2};
Line(11) = {1, 3};
Line(12) = {5, 4};
Line Loop(14) = {12, 9, 5, -4};
Plane Surface(14) = {14};
Line Loop(16) = {11, 3, 6, -10};
Plane Surface(16) = {16};
Line Loop(18) = {7, 5, 2, 6};
Plane Surface(18) = {18};
Line Loop(20) = {3, -2, -4, 1};
Plane Surface(20) = {20};
Line Loop(22) = {11, -1, 12, 8};
Plane Surface(22) = {22};
Line Loop(24) = {10, 7, -9, 8};
Plane Surface(24) = {24};
Surface Loop(26) = {20, 16, 22, 14, 24, 18};
Volume(26) = {26};
