Point(2) = {105e-6, 0.5e-3, 0, 20e-6};
Point(3) = {-105e-6, 0.5e-3, 0, 20e-6};
Point(4) = {105e-6, -0.5e-3, 0, 20e-6};
Point(5) = {-105e-6, -0.5e-3, 0, 20e-6};
Point(6) = {4.3e-6, 0.5e-3, 0, 2.3e-6};
Point(7) = {-4.3e-6, 0.5e-3, 0, 2.3e-6};
Point(8) = {-4.3e-6, -0.5e-3, 0, 2.3e-6};
Point(9) = {4.3e-6, -0.5e-3, 0, 2.3e-6};
Line(1) = {2, 4};
Line(2) = {4, 9};
Line(3) = {9, 8};

Line(4) = {8, 5};
Line(5) = {5, 3};
Line(6) = {3, 7};
Line(7) = {7, 6};
Line(8) = {6, 2};
Line(9) = {7, 8};
Line(10) = {9, 6};
Line Loop(11) = {6, 9, 4, 5};
Plane Surface(12) = {11};
Line Loop(13) = {10, 8, 1, 2};
Plane Surface(14) = {13};
Line Loop(15) = {7, -10, 3, -9};
Plane Surface(16) = {15};
