Point(2) = {105e-6, 0.5e-3, 0, 20e-6};
Point(3) = {-105e-6, 0.5e-3, 0, 20e-6};
Point(4) = {0.5e-3, 105e-6, 0, 20e-6};
Point(5) = {0.5e-3, -105e-6, 0, 20e-6};
Point(6) = {4.3e-6, 0.5e-3, 0, 2.3e-6};
Point(7) = {-4.3e-6, 0.5e-3, 0, 2.3e-6};
Point(8) = {0.5e-3, 4.3e-6, 0, 2.3e-6};
Point(9) = {0.5e-3, -4.3e-6, 0, 2.3e-6};
Point(10) = {4.3e-6, 4.3e-6, 0, 2.3e-6};
Point(11) = {-4.3e-6, -4.3e-6, 0, 2.3e-6};
Point(12) = {105e-6, 105e-6, 0, 20e-6};
Point(13) = {-105e-6, -105e-6, 0, 20e-6};
Line(1) = {3, 7};
Line(2) = {7, 6};
Line(3) = {6, 2};
Line(5) = {8, 9};
Line(9) = {7, 11};
Line(10) = {11, 9};
Line(11) = {8, 10};
Line(12) = {10, 6};
Line(13) = {3, 13};
Line(14) = {13, 5};
Line(15) = {5, 9};
Line(16) = {8, 4};
Line(17) = {4, 12};
Line(18) = {12, 2};
Line Loop(19) = {12, 3, -18, -17, -16, 11};
Plane Surface(20) = {19};
Line Loop(21) = {9, 10, -15, -14, -13, 1};
Plane Surface(22) = {21};
Line Loop(23) = {11, 12, -2, 9, 10, -5};
Plane Surface(24) = {23};
