$MeshFormat
2.2 0 8
$EndMeshFormat
$Nodes
64
1 0.000105 0.0005 0
2 -0.000105 0.0005 0
3 0.000105 -0.0005 0
4 -0.000105 -0.0005 0
5 4.3e-06 0.0005 0
6 -4.3e-06 0.0005 0
7 -4.3e-06 -0.0005 0
8 4.3e-06 -0.0005 0
9 0.000105 0.000400000000000163 0
10 0.000105 0.0003000000000003938 0
11 0.000105 0.0002000000000006902 0
12 0.000105 0.0001000000000009506 0
13 0.000105 1.280876446574375e-15 0
14 0.000105 -9.999999999891606e-05 0
15 0.000105 -0.0001999999999991724 0
16 0.000105 -0.0002999999999995258 0
17 0.000105 -0.0003999999999997818 0
18 -0.000105 -0.000400000000000163 0
19 -0.000105 -0.0003000000000003938 0
20 -0.000105 -0.0002000000000006902 0
21 -0.000105 -0.0001000000000009506 0
22 -0.000105 -1.280876446574375e-15 0
23 -0.000105 9.999999999891606e-05 0
24 -0.000105 0.0001999999999991724 0
25 -0.000105 0.0002999999999995258 0
26 -0.000105 0.0003999999999997818 0
27 -4.3e-06 0.000400000000000163 0
28 -4.3e-06 0.0003000000000003938 0
29 -4.3e-06 0.0002000000000006902 0
30 -4.3e-06 0.0001000000000009506 0
31 -4.3e-06 1.280876446574375e-15 0
32 -4.3e-06 -9.999999999891606e-05 0
33 -4.3e-06 -0.0001999999999991724 0
34 -4.3e-06 -0.0002999999999995258 0
35 -4.3e-06 -0.0003999999999997818 0
36 4.3e-06 -0.000400000000000163 0
37 4.3e-06 -0.0003000000000003938 0
38 4.3e-06 -0.0002000000000006902 0
39 4.3e-06 -0.0001000000000009506 0
40 4.3e-06 -1.280876446574375e-15 0
41 4.3e-06 9.999999999891606e-05 0
42 4.3e-06 0.0001999999999991724 0
43 4.3e-06 0.0002999999999995258 0
44 4.3e-06 0.0003999999999997818 0
45 -5.465e-05 0.0001499999999999893 0
46 -5.465e-05 -0.0001499999999999893 0
47 -5.465e-05 -0.0002299999999999543 0
48 -5.465e-05 0.0002299999999999543 0
49 -5.465e-05 -4.999999999995958e-05 0
50 -5.465e-05 4.999999999998272e-05 0
51 -5.465e-05 -0.0004300000000000065 0
52 -5.465e-05 0.0004300000000000065 0
53 -5.465e-05 0.0003659999999999742 0
54 -5.465e-05 -0.0003659999999999742 0
55 5.465e-05 0.0001499999999999893 0
56 5.465e-05 -0.0001499999999999893 0
57 5.465e-05 0.0002299999999999543 0
58 5.465e-05 -0.0002299999999999543 0
59 5.465e-05 4.999999999995958e-05 0
60 5.465e-05 -4.999999999998272e-05 0
61 5.465e-05 -0.0004300000000000065 0
62 5.465e-05 0.0004300000000000065 0
63 5.465e-05 -0.0003659999999999742 0
64 5.465e-05 0.0003659999999999742 0
$EndNodes
$Elements
154
1 15 2 0 2 1
2 15 2 0 3 2
3 15 2 0 4 3
4 15 2 0 5 4
5 15 2 0 6 5
6 15 2 0 7 6
7 15 2 0 8 7
8 15 2 0 9 8
9 1 2 0 1 1 9
10 1 2 0 1 9 10
11 1 2 0 1 10 11
12 1 2 0 1 11 12
13 1 2 0 1 12 13
14 1 2 0 1 13 14
15 1 2 0 1 14 15
16 1 2 0 1 15 16
17 1 2 0 1 16 17
18 1 2 0 1 17 3
19 1 2 0 2 3 8
20 1 2 0 3 8 7
21 1 2 0 4 7 4
22 1 2 0 5 4 18
23 1 2 0 5 18 19
24 1 2 0 5 19 20
25 1 2 0 5 20 21
26 1 2 0 5 21 22
27 1 2 0 5 22 23
28 1 2 0 5 23 24
29 1 2 0 5 24 25
30 1 2 0 5 25 26
31 1 2 0 5 26 2
32 1 2 0 6 2 6
33 1 2 0 7 6 5
34 1 2 0 8 5 1
35 1 2 0 9 6 27
36 1 2 0 9 27 28
37 1 2 0 9 28 29
38 1 2 0 9 29 30
39 1 2 0 9 30 31
40 1 2 0 9 31 32
41 1 2 0 9 32 33
42 1 2 0 9 33 34
43 1 2 0 9 34 35
44 1 2 0 9 35 7
45 1 2 0 10 8 36
46 1 2 0 10 36 37
47 1 2 0 10 37 38
48 1 2 0 10 38 39
49 1 2 0 10 39 40
50 1 2 0 10 40 41
51 1 2 0 10 41 42
52 1 2 0 10 42 43
53 1 2 0 10 43 44
54 1 2 0 10 44 5
55 2 2 0 12 30 45 29
56 2 2 0 12 24 45 23
57 2 2 0 12 33 46 32
58 2 2 0 12 21 46 20
59 2 2 0 12 20 47 19
60 2 2 0 12 34 47 33
61 2 2 0 12 29 48 28
62 2 2 0 12 25 48 24
63 2 2 0 12 22 49 21
64 2 2 0 12 32 49 31
65 2 2 0 12 23 50 22
66 2 2 0 12 31 50 30
67 2 2 0 12 49 46 21
68 2 2 0 12 32 46 49
69 2 2 0 12 45 50 23
70 2 2 0 12 45 30 50
71 2 2 0 12 48 45 24
72 2 2 0 12 29 45 48
73 2 2 0 12 46 47 20
74 2 2 0 12 46 33 47
75 2 2 0 12 50 49 22
76 2 2 0 12 31 49 50
77 2 2 0 12 51 7 4
78 2 2 0 12 18 51 4
79 2 2 0 12 7 51 35
80 2 2 0 12 52 2 6
81 2 2 0 12 27 52 6
82 2 2 0 12 2 52 26
83 2 2 0 12 28 48 25
84 2 2 0 12 34 19 47
85 2 2 0 12 53 28 25
86 2 2 0 12 28 53 27
87 2 2 0 12 26 53 25
88 2 2 0 12 54 19 34
89 2 2 0 12 35 54 34
90 2 2 0 12 19 54 18
91 2 2 0 12 52 53 26
92 2 2 0 12 52 27 53
93 2 2 0 12 54 51 18
94 2 2 0 12 35 51 54
95 2 2 0 14 42 55 41
96 2 2 0 14 12 55 11
97 2 2 0 14 39 56 38
98 2 2 0 14 15 56 14
99 2 2 0 14 11 57 10
100 2 2 0 14 43 57 42
101 2 2 0 14 38 58 37
102 2 2 0 14 16 58 15
103 2 2 0 14 13 59 12
104 2 2 0 14 41 59 40
105 2 2 0 14 14 60 13
106 2 2 0 14 40 60 39
107 2 2 0 14 59 55 12
108 2 2 0 14 41 55 59
109 2 2 0 14 56 60 14
110 2 2 0 14 56 39 60
111 2 2 0 14 58 56 15
112 2 2 0 14 38 56 58
113 2 2 0 14 55 57 11
114 2 2 0 14 55 42 57
115 2 2 0 14 60 59 13
116 2 2 0 14 40 59 60
117 2 2 0 14 61 3 8
118 2 2 0 14 36 61 8
119 2 2 0 14 3 61 17
120 2 2 0 14 62 5 1
121 2 2 0 14 9 62 1
122 2 2 0 14 5 62 44
123 2 2 0 14 37 58 16
124 2 2 0 14 43 10 57
125 2 2 0 14 63 37 16
126 2 2 0 14 37 63 36
127 2 2 0 14 17 63 16
128 2 2 0 14 64 10 43
129 2 2 0 14 44 64 43
130 2 2 0 14 10 64 9
131 2 2 0 14 64 62 9
132 2 2 0 14 44 62 64
133 2 2 0 14 61 63 17
134 2 2 0 14 61 36 63
135 2 2 0 16 35 34 37
136 2 2 0 16 35 37 36
137 2 2 0 16 37 34 38
138 2 2 0 16 34 33 38
139 2 2 0 16 33 39 38
140 2 2 0 16 33 32 39
141 2 2 0 16 39 32 40
142 2 2 0 16 32 31 40
143 2 2 0 16 40 31 41
144 2 2 0 16 31 30 41
145 2 2 0 16 7 36 8
146 2 2 0 16 7 35 36
147 2 2 0 16 42 30 29
148 2 2 0 16 42 41 30
149 2 2 0 16 43 29 28
150 2 2 0 16 42 29 43
151 2 2 0 16 44 28 27
152 2 2 0 16 44 43 28
153 2 2 0 16 5 27 6
154 2 2 0 16 44 27 5
$EndElements
