cl__1 = 0.1;
Point(1) = {1, 1, 0, 0.1};
Point(2) = {-1, 1, 0, 0.1};
Point(3) = {-1, -1, 0, 0.1};
Point(4) = {1, -1, 0, 0.1};
Point(5) = {-0.1, 1, 0, 0.03};
Point(6) = {0.1, 1, 0, 0.03};
Point(7) = {0.1, -1, 0, 0.03};
Point(8) = {-0.1, -1, 0, 0.03};
Line(1) = {2, 3};
Line(2) = {2, 5};
Line(3) = {5, 6};
Line(4) = {6, 1};
Line(5) = {1, 4};
Line(6) = {4, 7};
Line(7) = {7, 8};
Line(8) = {8, 3};
Line(9) = {5, 8};
Line(10) = {6, 7};
Line Loop(12) = {1, -8, -9, -2};
Plane Surface(12) = {12};
Line Loop(14) = {9, -7, -10, -3};
Plane Surface(14) = {14};
Line Loop(16) = {5, 6, -10, 4};
Plane Surface(16) = {16};
