Point(2) = {105e-6, 2e-3/Pi, 0, 20e-6};
Point(3) = {-105e-6, 2e-3/Pi, 0, 20e-6};
Point(4) = {2e-3/Pi, 105e-6, 0, 20e-6};
Point(5) = {2e-3/Pi, -105e-6, 0, 20e-6};
Point(6) = {4.3e-6, 2e-3/Pi, 0, 2.3e-6};
Point(7) = {-4.3e-6, 2e-3/Pi, 0, 2.3e-6};
Point(8) = {2e-3/Pi, 4.3e-6, 0, 2.3e-6};
Point(9) = {2e-3/Pi, -4.3e-6, 0, 2.3e-6};
Point(10) = {2e-3/Pi, 2e-3/Pi, 0, 2.3e-6};

Line(1) = {3, 7};
Line(2) = {7, 6};
Line(3) = {6, 2};
Line(4) = {4, 8};
Line(5) = {8, 9};
Line(6) = {9, 5};
Circle(7) = {2, 10, 4};
Circle(8) = {6, 10, 8};
Circle(9) = {7, 10, 9};
Circle(10) = {3, 10, 5};
Line Loop(11) = {7, 4, -8, 3};
Ruled Surface(12) = {11};
Line Loop(13) = {8, 5, -9, 2};
Ruled Surface(14) = {13};
Line Loop(15) = {1, 9, 6, -10};
Ruled Surface(16) = {15};
