Point(1) = {0.2, 1, 0, 0.02};
Point(2) = {-0.2, 1, 0, 0.02};
Point(3) = {-0.2, -1, 0, 0.02};
Point(4) = {0.2, -1, 0, 0.02};
Line(1) = {2, 3};
Line(2) = {3, 4};
Line(3) = {4, 1};
Line(4) = {1, 2};
Line Loop(5) = {1, 2, 3, 4};
Plane Surface(6) = {5};
